﻿{
  "SwaggerEndPoints": [
    //{
    //  "Key": "apigatewayweb",
    //  "TransformByOcelotConfig": false,
    //  "Config": [
    //    {
    //      "Name": "ApiGateway.Web",
    //      "Version": "1.0",
    //      "Url": "https://localhost:7219/swagger/v1/swagger.json"
    //    }
    //  ]
    //},
    {
      "Key": "item",
      "TransformByOcelotConfig": true,
      "Config": [
        {
          "Name": "Item.API",
          "Version": "1.0",
          "Url": "https://localhost:7219/item/swagger/v1/swagger.json"
        }
      ]
    },
    {
      "Key": "user",
      "TransformByOcelotConfig": true,
      "Config": [
        {
          "Name": "User.API",
          "Version": "1.0",
          "Url": "https://localhost:7219/user/swagger/v1/swagger.json"
        }
      ]
    },
    {
      "Key": "transaction",
      "TransformByOcelotConfig": true,
      "Config": [
        {
          "Name": "Transaction.API",
          "Version": "1.0",
          "Url": "https://localhost:7219/transaction/swagger/v1/swagger.json"
        }
      ]
    }
  ]
}